TechOrientVisuals
…
moviedata2 <- moviedata %>% 
  mutate(Title = title)
keywordplot <- merge(moviedata2, movieplot, by = "Title")
keywordplot %>% 
  as_tibble()

## # A tibble: 14,486 x 30
##    Title   imdb_title_id title  original_title  year date_published genre  duration
##    <chr>   <chr>         <chr>  <chr>          <dbl> <chr>          <chr>     <dbl>
##  1 -30-    tt0052526     -30-   -30-            1959 1963-12-19     Drama        96
##  2 .45     tt0259822     .45    .45             2006 2006-11-30     Crime…      101
##  3 '71     tt2614684     '71    '71             2014 2015-07-09     Actio…       99
##  4 'Gator… tt0074080     'Gato… 'Gator Bait     1973 1974-06-03     Actio…       88
##  5 'Neath… tt0034420     'Neat… 'Neath Brookl…  1942 1942-11-20     Comed…       61
##  6 $9.99   tt0790799     $9.99  $9.99           2008 2009-09-17     Anima…       78
##  7 $9.99   tt0790799     $9.99  $9.99           2008 2009-09-17     Anima…       78
##  8 009 Re… tt2078523     009 R… 009 Re:Cyborg   2012 2012-10-27     Anima…      103
##  9 10      tt0078721     10     10              1979 1979-10-05     Comed…      122
## 10 10      tt0078721     10     10              1979 1979-10-05     Comed…      122
## # … with 14,476 more rows, and 22 more variables: country <chr>, language <chr>,
## #   director <chr>, writer <chr>, production_company <chr>, actors <chr>,
## #   description <chr>, avg_vote <dbl>, votes <dbl>, budget <chr>,
## #   usa_gross_income <chr>, worlwide_gross_income <chr>, metascore <dbl>,
## #   reviews_from_users <dbl>, reviews_from_critics <dbl>, Release Year <dbl>,
## #   Origin/Ethnicity <chr>, Director <chr>, Cast <chr>, Genre <chr>,
## #   Wiki Page <chr>, Plot <chr>
…
